<svg xmlns="http://www.w3.org/2000/svg" xmlns:xlink="http://www.w3.org/1999/xlink" width="30" height="30" viewBox="0 0 30 30">
    <defs>
        <filter id="prefix__a" width="247.2%" height="250%" x="-73.6%" y="-75%" filterUnits="objectBoundingBox">
            <feOffset dy="5" in="SourceAlpha" result="shadowOffsetOuter1"/>
            <feGaussianBlur in="shadowOffsetOuter1" result="shadowBlurOuter1" stdDeviation="7.5"/>
            <feColorMatrix in="shadowBlurOuter1" result="shadowMatrixOuter1" values="0 0 0 0 0 0 0 0 0 0 0 0 0 0 0 0 0 0 0.147044362 0"/>
            <feMerge>
                <feMergeNode in="shadowMatrixOuter1"/>
                <feMergeNode in="SourceGraphic"/>
            </feMerge>
        </filter>
        <path id="prefix__b" d="M22.417 16.11c3.502 0 6.34 2.836 6.34 6.338 0 3.5-2.838 6.338-6.34 6.338-3.501 0-6.338-2.837-6.338-6.338 0-3.502 2.837-6.338 6.338-6.338zm0 1.153c-2.864 0-5.184 2.32-5.184 5.185 0 2.863 2.32 5.184 5.184 5.184 2.865 0 5.186-2.32 5.186-5.184 0-2.865-2.32-5.185-5.186-5.185zm.069 1.495c.3 0 .546.229.574.522l.003.055-.001 2.597h2.597c.318 0 .577.258.577.577 0 .3-.23.546-.522.574l-.055.003-2.597-.001v2.597c0 .319-.258.577-.576.577-.3 0-.547-.228-.575-.521l-.002-.056-.001-2.597H19.31c-.318 0-.576-.258-.576-.576 0-.3.228-.547.52-.575l.056-.002h2.597v-2.597c0-.319.259-.577.578-.577zM12.737 1.154c3.368 0 5.226 1.782 5.278 4.743l.001.13v2.281l.035.052c.631.985.445 2.274-.414 3.034l-.044.038-.058.183c-.336 1.027-.837 1.933-1.465 2.645l-.06.067v.784l.018.05c.056.127.15.196.577.423l.457.241c.283.149.391.497.243.78-.148.281-.497.39-.78.242l-.318-.17c-.977-.525-1.135-.7-1.325-1.302-.011-.037-.02-.075-.023-.114l-.003-.06V14.1c0-.152.06-.297.166-.405.668-.678 1.198-1.636 1.515-2.76.036-.128.115-.24.225-.317.548-.381.676-1.143.275-1.696l-.045-.058c-.072-.088-.116-.196-.127-.308l-.003-.057V6.026c0-2.397-1.342-3.718-4.125-3.718-2.684 0-4.078 1.31-4.124 3.601V8.5c0 .133-.047.263-.132.366-.438.534-.343 1.3.175 1.71l.057.043c.11.076.189.188.225.317.315 1.12.845 2.08 1.514 2.759.093.094.15.218.163.348l.003.057v1.103c0 .058-.01.117-.027.173-.37 1.178-3.127 2.537-8.153 4.467-.067.025-.115.085-.127.157l-.003.037v2.76c0 .105.074.19.17.207l.033.002h11.836c.318 0 .577.259.577.577 0 .3-.23.547-.522.574l-.055.003H2.51c-.725 0-1.317-.571-1.355-1.288l-.002-.075v-2.76c0-.565.346-1.071.872-1.272l.755-.293c3.758-1.476 6.285-2.732 6.67-3.357l.012-.024v-.763l-.06-.067c-.628-.714-1.129-1.62-1.464-2.646l-.058-.182-.045-.039c-.858-.761-1.044-2.05-.412-3.033l.034-.051V6.026c0-2.965 1.865-4.819 5.136-4.871l.143-.001z"/>
    </defs>
    <g fill="none" fill-rule="evenodd" filter="url(#prefix__a)" transform="translate(-12 -11)">
        <g transform="translate(12 11)">
            <mask id="prefix__c" fill="#fff">
                <use xlink:href="#prefix__b"/>
            </mask>
            <use fill="#000" fill-rule="nonzero" xlink:href="#prefix__b"/>
            <g fill="#949494" mask="url(#prefix__c)">
                <path d="M0 0H30V30H0z"/>
            </g>
        </g>
    </g>
</svg>
