<svg xmlns="http://www.w3.org/2000/svg" xmlns:xlink="http://www.w3.org/1999/xlink" width="154" height="160" viewBox="0 0 154 160">
    <defs>
        <path id="prefix__a" d="M71.99 56.997c24.522 0 46.334 14.035 56.015 34.817l5.092-12.615c.611-1.514 2.383-2.265 3.957-1.677 1.482.554 2.26 2.097 1.837 3.54l-.094.268-7.97 19.743c-.263.745-.834 1.38-1.611 1.723-.008.002-.014.005-.02.008-.04.019-.081.036-.123.052l-.057.02c-.04.015-.08.03-.122.042l-.029.009-.076.023-.073.019-.018.005.09-.024c-.077.022-.155.04-.233.056l-.038.007c-.048.01-.096.018-.144.024l-.034.005c-.039.005-.077.01-.114.013l-.085.006c-.033.003-.066.004-.1.006l-.07.001h-.112l-.058-.002-.11-.007-.084-.007-.087-.01-.078-.012-.085-.014c-.084-.016-.17-.035-.254-.058l-.045-.013c-.067-.02-.133-.041-.199-.065l-.036-.012-19.911-7.444c-1.574-.589-2.355-2.294-1.743-3.808.575-1.426 2.179-2.175 3.678-1.767l.28.09 13.677 5.114C114.294 75.9 94.395 62.882 71.99 62.882c-16.028 0-30.695 6.673-40.839 17.526-1.493 1.598-4.062 1.703-5.133.734-1.072-.969-1.004-2.965.55-4.63 11.274-12.084 27.59-19.515 45.422-19.515z"/>
    </defs>
    <g fill="none" fill-rule="evenodd" transform="rotate(90 77 77)">
        <mask id="prefix__b" fill="#fff">
            <use xlink:href="#prefix__a"/>
        </mask>
        <use fill="#000" fill-rule="nonzero" xlink:href="#prefix__a"/>
        <g fill="#C4C4C4" mask="url(#prefix__b)">
            <path d="M0 0H159V153H0z" transform="translate(-1 6)"/>
        </g>
    </g>
</svg>
