<svg width="49" height="48" viewBox="0 0 49 48" fill="none" xmlns="http://www.w3.org/2000/svg">
<path d="M6.6785 17.7823C4.53827 19.9225 3.70664 21.9038 3.86562 24.5332C3.86562 24.7289 3.87786 24.9368 3.89008 25.1202C3.97569 26.6734 4.44043 27.823 5.21091 28.5935C6.09146 29.4741 7.42452 29.7798 9.27123 29.4496L15.3006 28.3611C17.1595 28.0187 18.5293 26.8202 18.5415 24.7778V22.8944C18.5415 22.3318 18.7738 22.075 19.2141 21.9771C20.2904 21.7325 22.7852 21.5613 24.5953 21.5613C26.4909 21.5491 28.4599 21.6836 29.7196 21.9649C30.1599 22.0872 30.38 22.3318 30.38 22.8944L30.3922 24.7656C30.3922 26.8202 31.7742 28.0309 33.6209 28.3611L39.6503 29.4496C41.497 29.7798 42.8178 29.4618 43.7106 28.5935C44.4933 27.8353 44.9458 26.6734 45.0314 25.1202C45.0436 24.9123 45.0559 24.7289 45.0681 24.5454C45.2148 21.9038 44.3832 19.9225 42.2674 17.8068C38.7697 14.309 32.3612 12.2055 24.4607 12.2055C16.6092 12.2055 10.164 14.2968 6.6785 17.7823ZM8.54967 19.6779C11.6071 16.4982 18.0034 14.896 24.3262 14.8838C30.698 14.8716 37.3388 16.4982 40.3963 19.6779C41.7171 21.0477 42.402 22.6865 42.2797 24.472C42.2674 24.631 42.2674 24.7533 42.243 24.9001C42.1941 25.585 41.9739 26.1475 41.6193 26.5022C41.2646 26.8569 40.8121 27.0403 40.2128 26.9058L34.2813 25.7195C33.6454 25.5972 33.1929 25.1936 33.1929 24.4353L33.1929 22.2829C33.1929 20.5952 32.1044 19.629 30.6735 19.4211C29.0347 19.1765 26.4542 19.0175 24.583 19.0297C22.7119 19.0175 19.9112 19.1765 18.248 19.4211C16.8171 19.629 15.7286 20.5952 15.7286 22.2829V24.4353C15.7286 25.1936 15.2883 25.585 14.6524 25.7317L8.72089 26.918C8.10939 27.0403 7.66912 26.8691 7.30222 26.5022C6.94755 26.1475 6.72742 25.585 6.6785 24.9001C6.66627 24.7411 6.65404 24.631 6.64181 24.472C6.51951 22.6865 7.21661 21.0599 8.54967 19.6779Z" fill="white"/>
</svg>
