<svg xmlns="http://www.w3.org/2000/svg" xmlns:xlink="http://www.w3.org/1999/xlink" width="142" height="142" viewBox="0 0 142 142">
    <defs>
        <path id="prefix__a" d="M50.84 31.24c.874 0 1.576.717 1.576 1.594 0 4.974-1.898 9.654-5.344 13.174-3.018 3.082-6.911 4.954-11.107 5.375v12.742h9.427c.858 0 1.59.648 1.59 1.497 0 .807-.66 1.432-1.463 1.492l-.127.005h-22.08c-.86 0-1.59-.648-1.59-1.497 0-.807.66-1.432 1.461-1.492l.128-.005h9.66V51.448c-4.521-.238-8.74-2.15-11.963-5.44-3.446-3.52-5.345-8.2-5.345-13.174 0-.877.703-1.594 1.577-1.594s1.576.717 1.576 1.594c0 4.132 1.574 8.012 4.433 10.932 2.77 2.828 6.418 4.422 10.316 4.516l.366.004h.217c4.036 0 7.827-1.604 10.683-4.52 2.859-2.92 4.432-6.8 4.432-10.932 0-.877.703-1.594 1.577-1.594zM34.462.952c6.812 0 12.372 5.417 12.517 12.135l.003.27v19.126c0 6.752-5.47 12.258-12.248 12.402l-.493.002c-6.812 0-12.372-5.416-12.517-12.135l-.003-.27V13.358c0-6.753 5.47-12.258 12.248-12.402l.272-.003h.22zm0 3.164h-.221c-5.068 0-9.204 4.015-9.337 8.995l-.003.246v19.126c0 5.01 4.055 9.106 9.092 9.237l.248.003h.22c5.069 0 9.205-4.014 9.337-8.994l.004-.246V13.357c0-5.093-4.189-9.24-9.34-9.24z"/>
    </defs>
    <g fill="none" fill-rule="evenodd" transform="translate(5 5)">
        <circle cx="66" cy="66" r="68.25" stroke="#FFF" stroke-width="4.5"/>
        <g transform="translate(31.5 33)">
            <mask id="prefix__b" fill="#fff">
                <use xlink:href="#prefix__a"/>
            </mask>
            <use fill="#000" fill-rule="nonzero" xlink:href="#prefix__a"/>
            <g fill="#FFF" mask="url(#prefix__b)">
                <path d="M0 0H67.5V67.5H0z"/>
            </g>
        </g>
    </g>
</svg>
