<svg xmlns="http://www.w3.org/2000/svg" xmlns:xlink="http://www.w3.org/1999/xlink" width="26" height="26" viewBox="0 0 26 26">
    <defs>
        <path id="prefix__a" d="M13 21.32c.351 0 .64.272.665.617l.002.05v1.332l2.833.001c.368 0 .667.299.667.667 0 .351-.272.64-.617.665l-.05.001h-7c-.368 0-.667-.298-.667-.666 0-.352.272-.64.617-.665l.05-.002h2.833v-1.333c0-.368.299-.667.667-.667zM12.994.334c3.168-.03 5.673 2.087 5.673 5.442v9.423c0 3.345-2.505 5.465-5.672 5.44-3.15-.023-5.662-2.161-5.662-5.44V5.776c0-3.271 2.512-5.412 5.66-5.442zm4.319 15.32H8.688c.215 2.23 2.007 3.635 4.317 3.653 2.32.017 4.1-1.369 4.308-3.653zM13.006 1.667c-2.462.024-4.34 1.624-4.34 4.109v8.543h8.667V5.776c0-2.487-1.749-4.04-4.11-4.107zm-1.34 11c.277 0 .5.224.5.5s-.223.5-.5.5c-.275 0-.5-.224-.5-.5s.225-.5.5-.5zm2.667 0c.276 0 .5.224.5.5s-.224.5-.5.5-.5-.224-.5-.5.224-.5.5-.5zm-1.333-2c.276 0 .5.224.5.5s-.224.5-.5.5-.5-.224-.5-.5.224-.5.5-.5zm2.667 0c.276 0 .5.224.5.5s-.224.5-.5.5-.5-.224-.5-.5.224-.5.5-.5zm-5.334 0c.276 0 .5.224.5.5s-.224.5-.5.5-.5-.224-.5-.5.224-.5.5-.5zM11.667 8c.276 0 .5.224.5.5s-.224.5-.5.5-.5-.224-.5-.5.224-.5.5-.5zm2.666 0c.276 0 .5.224.5.5s-.224.5-.5.5-.5-.224-.5-.5.224-.5.5-.5zM13 5.667c.276 0 .5.224.5.5s-.224.5-.5.5-.5-.224-.5-.5.224-.5.5-.5zm2.667 0c.276 0 .5.224.5.5s-.224.5-.5.5-.5-.224-.5-.5.224-.5.5-.5zm-5.334 0c.276 0 .5.224.5.5s-.224.5-.5.5-.5-.224-.5-.5.224-.5.5-.5zm1.334-2.334c.276 0 .5.224.5.5s-.224.5-.5.5-.5-.224-.5-.5.224-.5.5-.5zm2.666 0c.276 0 .5.224.5.5s-.224.5-.5.5-.5-.224-.5-.5.224-.5.5-.5z"/>
    </defs>
    <g fill="none" fill-rule="evenodd">
        <mask id="prefix__b" fill="#fff">
            <use xlink:href="#prefix__a"/>
        </mask>
        <use fill="#FFF" fill-rule="nonzero" xlink:href="#prefix__a"/>
        <g fill="#FFF" mask="url(#prefix__b)">
            <path d="M0 0H26V26H0z"/>
        </g>
    </g>
</svg>
