<svg xmlns="http://www.w3.org/2000/svg" xmlns:xlink="http://www.w3.org/1999/xlink" width="21" height="21" viewBox="0 0 21 21">
    <defs>
        <path id="prefix__a" d="M8.393.808c4.19 0 7.587 3.396 7.587 7.586 0 1.551-.466 2.994-1.265 4.196l4.861 4.86c.587.587.587 1.54 0 2.126-.571.571-1.488.587-2.077.047l-.05-.047-4.86-4.86c-1.202.798-2.645 1.264-4.196 1.264-4.189 0-7.585-3.397-7.585-7.586 0-4.19 3.396-7.586 7.585-7.586zm5.658 12.64c-.19.212-.391.413-.603.603l4.763 4.764c.167.166.437.166.604 0 .156-.157.165-.406.027-.574l-.027-.03zM8.393 1.885c-3.594 0-6.508 2.914-6.508 6.51 0 3.594 2.914 6.508 6.508 6.508 3.595 0 6.51-2.914 6.51-6.509s-2.915-6.51-6.51-6.51zm.358 1.117l.119.003c.297.01.53.259.52.556-.01.297-.258.53-.555.52-1.255-.04-2.469.426-3.37 1.326-.9.901-1.366 2.115-1.325 3.368.01.298-.223.547-.52.556-.297.01-.546-.223-.556-.52-.052-1.548.526-3.051 1.64-4.166 1.086-1.085 2.54-1.66 4.047-1.643z"/>
    </defs>
    <g fill="none" fill-rule="evenodd">
        <mask id="prefix__b" fill="#fff">
            <use xlink:href="#prefix__a"/>
        </mask>
        <use fill="#FFF" fill-rule="nonzero" xlink:href="#prefix__a"/>
        <g fill="#949494" mask="url(#prefix__b)">
            <path d="M0 0H21V21H0z"/>
        </g>
    </g>
</svg>
