<svg xmlns="http://www.w3.org/2000/svg" width="9" height="16" viewBox="0 0 9 16">
    <path fill="none" fill-rule="evenodd" stroke="#949494" stroke-linecap="round" stroke-linejoin="round" stroke-width="1.5" d="M0 0L6.5 6 13 0" transform="rotate(-90 8 6.5)"/>
</svg>
